Project 1: Exploratory Data Analysis
…
NBA_stats2 <- NBA_stats2 %>% group_by(player) %>% slice(1) %>% 
    ungroup() %>% select(-rk)

NBA_stats1 %>% pivot_wider(names_from = "tm", values_from = "pts")

## # A tibble: 540 x 58
##    player pos     age     g    gs    mp    fg   fga fg_percent   x3p  x3pa
##    <chr>  <chr> <dbl> <dbl> <dbl> <dbl> <dbl> <dbl>      <dbl> <dbl> <dbl>
##  1 Aaron… PG       33    32     1   189    28    69      0.406    11    31
##  2 Aaron… PF       22    58    57  1909   375   865      0.434   115   342
##  3 Aaron… SG       23     9     3   233    19    69      0.275     9    43
##  4 Aaron… PG       31     1     0    35     3     9      0.333     1     4
##  5 Abdel… SF       24    48     1   522    50   149      0.336    23    65
##  6 Adrei… PF       26     5     0    43     7    10      0.7       2     3
##  7 Al Ho… C        31    72    72  2277   368   753      0.489    97   226
##  8 Al Je… C        33    36     1   484   111   208      0.534     0     3
##  9 Al-Fa… PF       27    69    67  2072   230   582      0.395   125   339
## 10 Alan … PF       25     5     0    70     7    18      0.389     0     0
## # … with 530 more rows, and 47 more variables: x3p_percent <dbl>, x2p <dbl>,
## #   x2pa <dbl>, x2p_percent <dbl>, e_fg_percent <dbl>, ft <dbl>, fta <dbl>,
## #   ft_percent <dbl>, orb <dbl>, drb <dbl>, trb <dbl>, ast <dbl>, stl <dbl>,
## #   blk <dbl>, tov <dbl>, pf <dbl>, MIN <dbl>, ORL <dbl>, DAL <dbl>, HOU <dbl>,
## #   BOS <dbl>, IND <dbl>, POR <dbl>, PHO <dbl>, UTA <dbl>, OKC <dbl>,
## #   LAL <dbl>, TOR <dbl>, BRK <dbl>, PHI <dbl>, DET <dbl>, GSW <dbl>,
## #   MEM <dbl>, ATL <dbl>, CLE <dbl>, NOP <dbl>, CHI <dbl>, TOT <dbl>,
## #   LAC <dbl>, MIA <dbl>, SAC <dbl>, WAS <dbl>, MIL <dbl>, SAS <dbl>,
## #   CHO <dbl>, NYK <dbl>, DEN <dbl>

NBA_stats1 %>% pivot_longer(c("pts"), names_to = "Points", values_to = "Points Scored")

## # A tibble: 540 x 30
##    player pos     age tm        g    gs    mp    fg   fga fg_percent   x3p  x3pa
##    <chr>  <chr> <dbl> <chr> <dbl> <dbl> <dbl> <dbl> <dbl>      <dbl> <dbl> <dbl>
##  1 Aaron… PG       33 MIN      32     1   189    28    69      0.406    11    31
##  2 Aaron… PF       22 ORL      58    57  1909   375   865      0.434   115   342
##  3 Aaron… SG       23 DAL       9     3   233    19    69      0.275     9    43
##  4 Aaron… PG       31 HOU       1     0    35     3     9      0.333     1     4
##  5 Abdel… SF       24 BOS      48     1   522    50   149      0.336    23    65
##  6 Adrei… PF       26 ORL       5     0    43     7    10      0.7       2     3
##  7 Al Ho… C        31 BOS      72    72  2277   368   753      0.489    97   226
##  8 Al Je… C        33 IND      36     1   484   111   208      0.534     0     3
##  9 Al-Fa… PF       27 POR      69    67  2072   230   582      0.395   125   339
## 10 Alan … PF       25 PHO       5     0    70     7    18      0.389     0     0
## # … with 530 more rows, and 18 more variables: x3p_percent <dbl>, x2p <dbl>,
## #   x2pa <dbl>, x2p_percent <dbl>, e_fg_percent <dbl>, ft <dbl>, fta <dbl>,
## #   ft_percent <dbl>, orb <dbl>, drb <dbl>, trb <dbl>, ast <dbl>, stl <dbl>,
## #   blk <dbl>, tov <dbl>, pf <dbl>, Points <chr>, `Points Scored` <dbl>

NBA_stats2 %>% pivot_wider(names_from = "tm", values_from = "pts")

## # A tibble: 530 x 58
##    player pos     age     g    gs    mp    fg   fga fg_percent   x3p  x3pa
##    <chr>  <chr> <dbl> <dbl> <dbl> <dbl> <dbl> <dbl>      <dbl> <dbl> <dbl>
##  1 Aaron… PF       23    78    78  2633   470  1046      0.449   121   347
##  2 Aaron… PG       22    50     0   646   105   262      0.401    43   127
##  3 Abdel… SF       25    61     1   694    91   215      0.423    32   100
##  4 Al Ho… C        32    68    68  1973   387   723      0.535    73   203
##  5 Al-Fa… PF       28    81    81  2292   257   593      0.433    96   280
##  6 Alan … PF       26     5     0    26     8    13      0.615     0     1
##  7 Alec … SG       27    64    24  1375   192   474      0.405    61   168
##  8 Álex … SG       25    31     2   588    56   157      0.357    41   127
##  9 Alex … PG       24    25     4   531    77   173      0.445    24    50
## 10 Alex … C        25    77    31  1544   320   648      0.494    74   204
## # … with 520 more rows, and 47 more variables: x3p_percent <dbl>, x2p <dbl>,
## #   x2pa <dbl>, x2p_percent <dbl>, e_fg_percent <dbl>, ft <dbl>, fta <dbl>,
## #   ft_percent <dbl>, orb <dbl>, drb <dbl>, trb <dbl>, ast <dbl>, stl <dbl>,
## #   blk <dbl>, tov <dbl>, pf <dbl>, ORL <dbl>, IND <dbl>, OKC <dbl>, BOS <dbl>,
## #   POR <dbl>, BRK <dbl>, TOT <dbl>, LAL <dbl>, ATL <dbl>, GSW <dbl>,
## #   NYK <dbl>, PHI <dbl>, DET <dbl>, MIN <dbl>, LAC <dbl>, CLE <dbl>,
## #   NOP <dbl>, CHI <dbl>, MIA <dbl>, SAC <dbl>, CHO <dbl>, MIL <dbl>,
## #   WAS <dbl>, DEN <dbl>, MEM <dbl>, SAS <dbl>, HOU <dbl>, TOR <dbl>,
## #   UTA <dbl>, DAL <dbl>, PHO <dbl>

NBA_stats2 %>% pivot_longer(c("pts"), names_to = "Points", values_to = "Points Scored")

## # A tibble: 530 x 30
##    player pos     age tm        g    gs    mp    fg   fga fg_percent   x3p  x3pa
##    <chr>  <chr> <dbl> <chr> <dbl> <dbl> <dbl> <dbl> <dbl>      <dbl> <dbl> <dbl>
##  1 Aaron… PF       23 ORL      78    78  2633   470  1046      0.449   121   347
##  2 Aaron… PG       22 IND      50     0   646   105   262      0.401    43   127
##  3 Abdel… SF       25 OKC      61     1   694    91   215      0.423    32   100
##  4 Al Ho… C        32 BOS      68    68  1973   387   723      0.535    73   203
##  5 Al-Fa… PF       28 POR      81    81  2292   257   593      0.433    96   280
##  6 Alan … PF       26 BRK       5     0    26     8    13      0.615     0     1
##  7 Alec … SG       27 TOT      64    24  1375   192   474      0.405    61   168
##  8 Álex … SG       25 OKC      31     2   588    56   157      0.357    41   127
##  9 Alex … PG       24 LAL      25     4   531    77   173      0.445    24    50
## 10 Alex … C        25 ATL      77    31  1544   320   648      0.494    74   204
## # … with 520 more rows, and 18 more variables: x3p_percent <dbl>, x2p <dbl>,
## #   x2pa <dbl>, x2p_percent <dbl>, e_fg_percent <dbl>, ft <dbl>, fta <dbl>,
## #   ft_percent <dbl>, orb <dbl>, drb <dbl>, trb <dbl>, ast <dbl>, stl <dbl>,
## #   blk <dbl>, tov <dbl>, pf <dbl>, Points <chr>, `Points Scored` <dbl>
…
NBA_Season_Stats %>% summarise_at(c("Age", "Games_Played", "Games_Started", 
    "FG_Percent", "x3P_Percent", "FT_Percent", "MPG", "PPG", 
    "RPG", "APG", "SPG", "BPG"), min, na.rm = T)

## # A tibble: 1 x 12
##     Age Games_Played Games_Started FG_Percent x3P_Percent FT_Percent   MPG   PPG
##   <dbl>        <dbl>         <dbl>      <dbl>       <dbl>      <dbl> <dbl> <dbl>
## 1    19            1             0          0           0          0   0.7     0
## # … with 4 more variables: RPG <dbl>, APG <dbl>, SPG <dbl>, BPG <dbl>

NBA_Season_Stats %>% arrange(desc(Age))

## # A tibble: 1,070 x 15
##    Player Position   Age Team  Games_Played Games_Started FG_Percent x3P_Percent
##    <chr>  <chr>    <dbl> <chr>        <dbl>         <dbl>      <dbl>       <dbl>
##  1 Vince… PF          42 ATL             76             9      0.419       0.389
##  2 Vince… SF          41 SAC             58             5      0.403       0.345
##  3 Jason… SG          40 MIL             51             4      0.383       0.348
##  4 Manu … SG          40 SAS             65             0      0.434       0.333
##  5 Dirk … PF          40 DAL             51            20      0.359       0.312
##  6 Dirk … C           39 DAL             77            77      0.456       0.409
##  7 Damie… SF          38 IND             19             1      0.333       0.222
##  8 Jamal… SG          38 PHO             64             0      0.397       0.332
##  9 Pau G… C           38 TOT             30             6      0.447       0.462
## 10 Udoni… C           38 MIA             10             1      0.333       0    
## # … with 1,060 more rows, and 7 more variables: FT_Percent <dbl>, MPG <dbl>,
## #   PPG <dbl>, RPG <dbl>, APG <dbl>, SPG <dbl>, BPG <dbl>

NBA_Season_Stats %>% group_by(Team) %>% top_n(15, Age) %>% summarise(mean(Age))

## # A tibble: 31 x 2
##    Team  `mean(Age)`
##    <chr>       <dbl>
##  1 ATL          28.3
##  2 BOS          28  
##  3 BRK          27.9
##  4 CHI          25.2
##  5 CHO          27.9
##  6 CLE          30.3
##  7 DAL          30.6
##  8 DEN          29.4
##  9 DET          28.7
## 10 GSW          31.9
## # … with 21 more rows

NBA_Season_Stats %>% group_by(Team) %>% top_n(15, MPG) %>% summarise(mean(MPG))

## # A tibble: 31 x 2
##    Team  `mean(MPG)`
##    <chr>       <dbl>
##  1 ATL          26.3
##  2 BOS          28.9
##  3 BRK          27.4
##  4 CHI          28.3
##  5 CHO          26.8
##  6 CLE          26.0
##  7 DAL          25.5
##  8 DEN          28.6
##  9 DET          25.5
## 10 GSW          27.8
## # … with 21 more rows

NBA_Season_Stats %>% group_by(Team) %>% top_n(15, PPG) %>% summarise(mean(PPG))

## # A tibble: 31 x 2
##    Team  `mean(PPG)`
##    <chr>       <dbl>
##  1 ATL          12.6
##  2 BOS          14.5
##  3 BRK          13.8
##  4 CHI          14.0
##  5 CHO          12.7
##  6 CLE          12.3
##  7 DAL          11.4
##  8 DEN          13.9
##  9 DET          11.7
## 10 GSW          15.0
## # … with 21 more rows

NBA_Season_Stats %>% group_by(Team) %>% top_n(15, RPG) %>% summarise(mean(RPG))

## # A tibble: 31 x 2
##    Team  `mean(RPG)`
##    <chr>       <dbl>
##  1 ATL          5.32
##  2 BOS          5.21
##  3 BRK          5.07
##  4 CHI          5.5 
##  5 CHO          5.37
##  6 CLE          5.73
##  7 DAL          4.77
##  8 DEN          5.8 
##  9 DET          4.97
## 10 GSW          5.38
## # … with 21 more rows

NBA_Season_Stats %>% group_by(Team) %>% top_n(15, APG) %>% summarise(mean(APG))

## # A tibble: 31 x 2
##    Team  `mean(APG)`
##    <chr>       <dbl>
##  1 ATL          3.15
##  2 BOS          3.37
##  3 BRK          3.28
##  4 CHI          3.28
##  5 CHO          2.83
##  6 CLE          2.51
##  7 DAL          2.81
##  8 DEN          3.32
##  9 DET          2.62
## 10 GSW          3.88
## # … with 21 more rows

NBA_Season_Stats %>% group_by(Team) %>% top_n(15, SPG) %>% summarise(mean(SPG))

## # A tibble: 31 x 2
##    Team  `mean(SPG)`
##    <chr>       <dbl>
##  1 ATL         0.929
##  2 BOS         1.01 
##  3 BRK         0.72 
##  4 CHI         1.09 
##  5 CHO         0.767
##  6 CLE         0.80 
##  7 DAL         0.747
##  8 DEN         1.01 
##  9 DET         0.80 
## 10 GSW         0.95 
## # … with 21 more rows

NBA_Season_Stats %>% group_by(Team) %>% top_n(15, BPG) %>% summarise(mean(BPG))

## # A tibble: 31 x 2
##    Team  `mean(BPG)`
##    <chr>       <dbl>
##  1 ATL         0.66 
##  2 BOS         0.611
##  3 BRK         0.5  
##  4 CHI         0.587
##  5 CHO         0.62 
##  6 CLE         0.375
##  7 DAL         0.547
##  8 DEN         0.653
##  9 DET         0.469
## 10 GSW         0.981
## # … with 21 more rows

NBA_Season_Stats %>% filter(between(MPG, 35, 37)) %>% select(1, 
    3, 4, 10) %>% arrange(desc(MPG))

## # A tibble: 25 x 4
##    Player                  Age Team    MPG
##    <chr>                 <dbl> <chr> <dbl>
##  1 LeBron James             33 CLE    36.9
##  2 Bradley Beal             25 WAS    36.9
##  3 Paul George              28 OKC    36.9
##  4 James Harden             29 HOU    36.8
##  5 Giannis Antetokounmpo    23 MIL    36.7
##  6 Jimmy Butler             28 MIN    36.7
##  7 Damian Lillard           27 POR    36.6
##  8 Paul George              27 OKC    36.6
##  9 Anthony Davis            24 NOP    36.4
## 10 Khris Middleton          26 MIL    36.4
## # … with 15 more rows

NBA_Season_Stats %>% filter(between(PPG, 25, 37)) %>% select(1, 
    3, 4, 11) %>% arrange(desc(PPG))

## # A tibble: 22 x 4
##    Player                  Age Team    PPG
##    <chr>                 <dbl> <chr> <dbl>
##  1 James Harden             29 HOU    36.1
##  2 James Harden             28 HOU    30.4
##  3 Anthony Davis            24 NOP    28.1
##  4 Paul George              28 OKC    28  
##  5 Giannis Antetokounmpo    24 MIL    27.7
##  6 LeBron James             33 CLE    27.5
##  7 Joel Embiid              24 PHI    27.5
##  8 LeBron James             34 LAL    27.4
##  9 Stephen Curry            30 GSW    27.3
## 10 Damian Lillard           27 POR    26.9
## # … with 12 more rows

NBA_Season_Stats %>% filter(between(RPG, 10, 16)) %>% select(1, 
    3, 4, 12) %>% arrange(desc(RPG))

## # A tibble: 30 x 4
##    Player                  Age Team    RPG
##    <chr>                 <dbl> <chr> <dbl>
##  1 Andre Drummond           24 DET    16  
##  2 Andre Drummond           25 DET    15.6
##  3 DeAndre Jordan           29 LAC    15.2
##  4 Joel Embiid              24 PHI    13.6
##  5 DeAndre Jordan           30 TOT    13.1
##  6 DeMarcus Cousins         27 NOP    12.9
##  7 Rudy Gobert              26 UTA    12.9
##  8 Clint Capela             24 HOU    12.7
##  9 Dwight Howard            32 CHO    12.5
## 10 Giannis Antetokounmpo    24 MIL    12.5
## # … with 20 more rows

NBA_Season_Stats %>% filter(between(APG, 7, 11)) %>% select(1, 
    3, 4, 13) %>% arrange(desc(APG))

## # A tibble: 25 x 4
##    Player              Age Team    APG
##    <chr>             <dbl> <chr> <dbl>
##  1 Russell Westbrook    30 OKC    10.7
##  2 Russell Westbrook    29 OKC    10.2
##  3 John Wall            27 WAS     9.6
##  4 LeBron James         33 CLE     9.1
##  5 James Harden         28 HOU     8.8
##  6 John Wall            28 WAS     8.7
##  7 Kyle Lowry           32 TOR     8.7
##  8 LeBron James         34 LAL     8.3
##  9 Ben Simmons          21 PHI     8.2
## 10 Rajon Rondo          31 NOP     8.2
## # … with 15 more rows

NBA_Season_Stats %>% filter(between(SPG, 1.7, 2.4)) %>% select(1, 
    3, 4, 14) %>% arrange(desc(SPG))

## # A tibble: 26 x 4
##    Player             Age Team    SPG
##    <chr>            <dbl> <chr> <dbl>
##  1 Victor Oladipo      25 IND     2.4
##  2 Paul George         28 OKC     2.2
##  3 Robert Covington    28 TOT     2.1
##  4 Eric Bledsoe        28 TOT     2  
##  5 Jimmy Butler        28 MIN     2  
##  6 Kawhi Leonard       26 SAS     2  
##  7 Kris Dunn           23 CHI     2  
##  8 Paul George         27 OKC     2  
##  9 Chris Paul          33 HOU     2  
## 10 James Harden        29 HOU     2  
## # … with 16 more rows

NBA_Season_Stats %>% filter(between(BPG, 1.5, 2.7)) %>% select(1, 
    3, 4, 15) %>% arrange(desc(BPG))

## # A tibble: 26 x 4
##    Player               Age Team    BPG
##    <chr>              <dbl> <chr> <dbl>
##  1 Myles Turner          22 IND     2.7
##  2 Anthony Davis         24 NOP     2.6
##  3 Kristaps Porziņģis    22 NYK     2.4
##  4 Anthony Davis         25 NOP     2.4
##  5 Mitchell Robinson     20 NYK     2.4
##  6 Rudy Gobert           25 UTA     2.3
##  7 Rudy Gobert           26 UTA     2.3
##  8 Brook Lopez           30 MIL     2.2
##  9 JaVale McGee          31 LAL     2  
## 10 Clint Capela          23 HOU     1.9
## # … with 16 more rows
…
